1号线:
共康路 /ditiefang/li143685036s100021816/mt1mt2l2l3a2a3ep310 14
呼兰路 /ditiefang/li143685036s100021814/mt1mt2l2l3a2a3ep310 16
彭浦新村 /ditiefang/li143685036s100021817/mt1mt2l2l3a2a3ep310 30

2号线:
川沙 /ditiefang/li143685058s100021862/mt1mt2l2l3a2a3ep310 29

3号线:
水产路 /ditiefang/li143684974s100021888/mt1mt2l2l3a2a3ep310 12
友谊路 /ditiefang/li143684974s100021890/mt1mt2l2l3a2a3ep310 17
江杨北路 /ditiefang/li143684974s100021892/mt1mt2l2l3a2a3ep310 12

4号线:

5号线:
金平路 /ditiefang/li143685060s100021910/mt1mt2l2l3a2a3ep310 22
华宁路 /ditiefang/li143685060s100021909/mt1mt2l2l3a2a3ep310 13
闵行开发区 /ditiefang/li143685060s100021907/mt1mt2l2l3a2a3ep310 49

6号线:
外高桥保税区北 /ditiefang/li143685061s100021941/mt1mt2l2l3a2a3ep310 24

7号线:
场中路 /ditiefang/li110460726s100021952/mt1mt2l2l3a2a3ep310 11

8号线:
嫩江路 /ditiefang/li143685063s100021971/mt1mt2l2l3a2a3ep310 11
市光路 /ditiefang/li143685063s100021970/mt1mt2l2l3a2a3ep310 18
成山路 /ditiefang/li143685063s100021987/mt1mt2l2l3a2a3ep310 17

9号线:
松江体育中心 /ditiefang/li143685064s100022013/mt1mt2l2l3a2a3ep310 30
